%YAML 1.1
%TAG !u! tag:unity3d.com,2011:
--- !u!74 &7400000
AnimationClip:
  m_ObjectHideFlags: 0
  m_PrefabParentObject: {fileID: 0}
  m_PrefabInternal: {fileID: 0}
  m_Name: Lava
  serializedVersion: 4
  m_AnimationType: 2
  m_Compressed: 0
  m_UseHighQualityCurve: 1
  m_RotationCurves: []
  m_CompressedRotationCurves: []
  m_PositionCurves: []
  m_ScaleCurves: []
  m_FloatCurves: []
  m_PPtrCurves:
  - curve:
    - time: 0
      value: {fileID: 21300000, guid: 18de32c3fb4dbec44967102808b0f245, type: 3}
    - time: .150000006
      value: {fileID: 21300000, guid: d50f9f2db1a638a438707dae1f7cda28, type: 3}
    - time: .316666663
      value: {fileID: 21300000, guid: 8e1d08d78a1ff6246a565abb55314f8c, type: 3}
    - time: .483333319
      value: {fileID: 21300000, guid: 28f34898e9f523649aeb7010c51d24a2, type: 3}
    - time: .649999976
      value: {fileID: 21300000, guid: 1eef0b700bc23cf4191639bd37dbcc42, type: 3}
    - time: .816666663
      value: {fileID: 21300000, guid: 9047384de8e07f44f992cf75a4819c6e, type: 3}
    attribute: m_Sprite
    path: 
    classID: 212
    script: {fileID: 0}
  m_SampleRate: 60
  m_WrapMode: 0
  m_Bounds:
    m_Center: {x: 0, y: 0, z: 0}
    m_Extent: {x: 0, y: 0, z: 0}
  m_ClipBindingConstant:
    genericBindings:
    - path: 0
      attribute: 0
      script: {fileID: 0}
      classID: 212
      customType: 23
      isPPtrCurve: 1
    pptrCurveMapping:
    - {fileID: 21300000, guid: 18de32c3fb4dbec44967102808b0f245, type: 3}
    - {fileID: 21300000, guid: d50f9f2db1a638a438707dae1f7cda28, type: 3}
    - {fileID: 21300000, guid: 8e1d08d78a1ff6246a565abb55314f8c, type: 3}
    - {fileID: 21300000, guid: 28f34898e9f523649aeb7010c51d24a2, type: 3}
    - {fileID: 21300000, guid: 1eef0b700bc23cf4191639bd37dbcc42, type: 3}
    - {fileID: 21300000, guid: 9047384de8e07f44f992cf75a4819c6e, type: 3}
  m_AnimationClipSettings:
    serializedVersion: 2
    m_StartTime: 0
    m_StopTime: .833333313
    m_OrientationOffsetY: 0
    m_Level: 0
    m_CycleOffset: 0
    m_LoopTime: 1
    m_LoopBlend: 0
    m_LoopBlendOrientation: 0
    m_LoopBlendPositionY: 0
    m_LoopBlendPositionXZ: 0
    m_KeepOriginalOrientation: 0
    m_KeepOriginalPositionY: 1
    m_KeepOriginalPositionXZ: 0
    m_HeightFromFeet: 0
    m_Mirror: 0
  m_EditorCurves: []
  m_EulerEditorCurves: []
  m_Events: []
